<svg width="161" height="174" viewBox="0 0 161 174" fill="none" xmlns="http://www.w3.org/2000/svg">
<rect x="0.680334" width="117.539" height="117.099" transform="matrix(0.680334 -0.732902 0.680334 0.732902 0.21748 87.4667)" fill="#111133" stroke="url(#paint0_linear_280_597)" stroke-dasharray="2 2"/>
<defs>
<linearGradient id="paint0_linear_280_597" x1="0" y1="59.0495" x2="135.876" y2="59.0495" gradientUnits="userSpaceOnUse">
<stop stop-color="#3A7BD5"/>
<stop offset="1" stop-color="#00D2FF"/>
</linearGradient>
</defs>
</svg>
